hardware/1231.vcd
$date 2021-01-09 21:59:54 $end
$version piscope V1 $end
$timescale 1 us $end
$scope module top $end
$var wire 1 A 0 $end
$var wire 1 B 1 $end
$var wire 1 C 2 $end
$var wire 1 D 3 $end
$var wire 1 E 4 $end
$var wire 1 F 5 $end
$var wire 1 G 6 $end
$var wire 1 H 7 $end
$var wire 1 I 8 $end
$var wire 1 J 9 $end
$var wire 1 K 10 $end
$var wire 1 L 11 $end
$var wire 1 M 12 $end
$var wire 1 N 13 $end
$var wire 1 O 14 $end
$var wire 1 P 15 $end
$var wire 1 Q 16 $end
$var wire 1 R 17 $end
$var wire 1 S 18 $end
$var wire 1 T 19 $end
$var wire 1 U 20 $end
$var wire 1 V 21 $end
$var wire 1 W 22 $end
$var wire 1 X 23 $end
$var wire 1 Y 24 $end
$var wire 1 Z 25 $end
$var wire 1 a 26 $end
$var wire 1 b 27 $end
$var wire 1 c 28 $end
$var wire 1 d 29 $end
$var wire 1 e 30 $end
$var wire 1 f 31 $end
$upscope $end
$enddefinitions $end
#0
1A
1B
1C
1D
1E
1F
0G
1H
1I
0J
0K
0L
0M
0N
1O
1P
0Q
0R
1S
0T
0U
0V
1W
0X
0Y
0Z
0a
0b
1c
0d
0e
0f
#15
0E
0W
#60
1E
#100
0E
#145
1E
#165
1R
1W
#185
0E
0W
#230
1E
1W
#270
0E
#315
1E
0W
#335
0R
1W
#355
0E
#400
1E
0W
#420
1R
1W
#440
0E
0W
#485
1E
1W
#505
0R
0W
#525
0E
1W
#572
1E
0W
#612
0E
1W
#657
1E
#700
0E
#740
1E
0W
#785
0E
1W
#825
1E
0W
#845
1R
#865
0E
#910
1E
1W
#71611
0R
0W
#71626
0E
#71671
1E
1W
#71713
0E
0W
#71758
1E
#71803
0E
#71841
1E
#71886
0E
#71926
1E
#71971
0E
#72011
1E
1W
#72031
1R
0W
#72051
0E
1W
#72096
1E
#72141
0E
#72180
1E
#72225
0E
#72265
1E
0W
#72310
0E
1W
#72350
1E
#72395
0E
0W
#72440
1E
1W
#72480
0E
0W
#72525
1E
1W
#74400
0R
#74415
0E
#74460
1E
#74500
0E
0W
#74545
1E
#74567
1R
1W
#74587
0E
#74632
1E
#74672
0E
0W
#74716
1E
#74736
0R
#74761
0E
1W
#74801
1E
0W
#74821
1R
#74846
0E
1W
#74886
1E
#74906
0R
0W
#74926
0E
1W
#74970
1E
0W
#75015
0E
#75055
1E
#75100
0E
1W
#75145
1E
0W
#75185
0E
1W
#75230
1E
0W
#75250
1R
1W
#75270
0E
#75310
1E
#1383419
0R
#1383434
0E
#1383479
1E
#1383524
0E
#1383564
1E
#1383589
1R
0W
#1383609
0E
1W
#1383649
1E
0W
#1383696
0E
#1383736
1E
#1383781
0E
#1383819
1E
1W
#1383864
0E
0W
#1383909
1E
1W
#1383929
0R
0W
#1383949
0E
1W
#1383994
1E
#1384034
0E
#1384079
1E
0W
#1384119
0E
#1384164
1E
1W
#1384184
1R
0W
#1384204
0E
#1384249
1E
#1384289
0E
1W
#1384334
1E
#1455054
0R
#1455069
0E
0W
#1455109
1E
1W
#1455154
0E
0W
#1455199
1E
1W
#1455239
0E
0W
#1455284
1E
1W
#1455324
0E
#1455369
1E
#1455409
0E
#1455454
1E
#1455474
1R
0W
#1455494
0E
1W
#1455539
1E
0W
#1455579
0E
#1455624
1E
#1455664
0E
#1455709
1E
#1455754
0E
1W
#1455794
1E
#1455839
0E
0W
#1455879
1E
#1455924
0E
#1455964
1E
#1457849
0R
#1457864
0E
#1457904
1E
1W
#1457949
0E
0W
#1457989
1E
1W
#1458014
1R
0W
#1458034
0E
1W
#1458079
1E
0W
#1458119
0E
1W
#1458159
1E
0W
#1458204
0E
1W
#1458249
1E
#1458289
0E
0W
#1458334
1E
1W
#1458354
0R
0W
#1458374
0E
1W
#1458419
1E
#1458459
0E
#1458504
1E
0W
#1458544
0E
#1458590
1E
#1458610
1R
1W
#1458635
0E
#1458675
1E
#1458719
0E
#1458759
1E
0W
#2909493
0R
1W
#2909508
0E
#2909548
1E
0W
#2909593
0E
#2909633
1E
1W
#2909658
1R
#2909673
0E
#2909720
1E
0W
#2909765
0E
#2909810
1E
1W
#2909828
0R
#2909848
0E
#2909893
1E
0W
#2909933
0E
1W
#2909978
1E
0W
#2909998
1R
1W
#2910018
0E
0W
#2910063
1E
#2910083
0R
#2910103
0E
#2910148
1E
1W
#2910188
0E
0W
#2910233
1E
#2910278
0E
#2910318
1E
#2910338
1R
1W
#2910363
0E
#2910403
1E
0W
#2976888
0R
#2976903
0E
#2976948
1E
#2976988
0E
1W
#2977033
1E
#2977073
0E
#2977118
1E
0W
#2977158
0E
1W
#2977203
1E
0W
#2977243
0E
1W
#2977288
1E
0W
#2977308
1R
1W
#2977333
0E
#2977373
1E
0W
#2977418
0E
#2977458
1E
#2977503
0E
#2977543
1E
1W
#2977588
0E
#2977628
1E
#2977673
0E
0W
#2977715
1E
#2977760
0E
1W
#2977800
1E
#2979678
0R
#2979695
0E
0W
#2979735
1E
#2979780
0E
1W
#2979823
1E
#2979843
1R
0W
#2979863
0E
#2979908
1E
#2979948
0E
#2979993
1E
#2980013
0R
1W
#2980033
0E
0W
#2980078
1E
1W
#2980118
0E
#2980163
1E
#2980183
1R
0W
#2980208
0E
#2980248
1E
#2980268
0R
1W
#2980293
0E
0W
#2980333
1E
#2980378
0E
1W
#2980418
1E
#2980463
0E
#2980503
1E
0W
#2980528
1R
1W
#2980548
0E
#2980594
1E
0W
#4241301
0R
#4241316
0E
#4241361
1E
1W
#4241401
0E
0W
#4241441
1E
1W
#4241466
1R
#4241486
0E
0W
#4241531
1E
#4241571
0E
1W
#4241616
1E
0W
#4241636
0R
#4241656
0E
1W
#4241703
1E
0W
#4241723
1R
1W
#4241743
0E
#4241788
1E
#4241808
0R
#4241826
0E
0W
#4241871
1E
1W
#4241911
0E
0W
#4241956
1E
#4242001
0E
1W
#4242041
1E
#4242086
0E
0W
#4242126
1E
#4242151
1R
#4242166
0E
#4242211
1E
1W
#4317121
0R
0W
#4317136
0E
1W
#4317181
1E
0W
#4317221
0E
#4317266
1E
1W
#4317306
0E
0W
#4317351
1E
#4317396
0E
1W
#4317436
1E
0W
#4317482
0E
#4317522
1E
#4317547
1R
1W
#4317566
0E
0W
#4317606
1E
#4317651
0E
#4317693
1E
1W
#4317738
0E
#4317783
1E
0W
#4317821
0E
#4317866
1E
1W
#4317906
0E
0W
#4317951
1E
#4317991
0E
#4318036
1E
1W
#4319911
0R
#4319926
0E
0W
#4319971
1E
#4320011
0E
#4320056
1E
#4320076
1R
1W
#4320096
0E
0W
#4320141
1E
1W
#4320181
0E
#4320226
1E
#4320246
0R
0W
#4320271
0E
1W
#4320311
1E
#4320336
1R
0W
#4320356
0E
#4320396
1E
#4320421
0R
#4320441
0E
1W
#4320486
1E
0W
#4320526
0E
1W
#4320568
1E
0W
#4320613
0E
1W
#4320658
1E
0W
#4320696
0E
1W
#4320741
1E
#4320761
1R
0W
#4320781
0E
#4320826
1E
