hardware/dump.vcd
$date
	Sat Jan 26 20:58:50 2019
$end
$version
	Icarus Verilog
$end
$timescale
	100ps
$end
$scope module test $end
$scope module top_instantiation $end
$var wire 2 ! CLOCK_24 [1:0] $end
$var wire 7 " HEX1 [6:0] $end
$var wire 7 # HEX2 [6:0] $end
$var wire 7 $ HEX3 [6:0] $end
$var wire 4 % KEY [3:0] $end
$var wire 7 & HEX0 [6:0] $end
$var reg 6 ' clock_division_counter [5:0] $end
$var reg 4 ( number_to_display [3:0] $end
$scope module display $end
$var wire 1 ) clk $end
$var wire 4 * number [3:0] $end
$var reg 7 + display [6:0] $end
$upscope $end
$upscope $end
$upscope $end
$enddefinitions $end
#0
$dumpvars
bx +
bx *
1)
bx (
bx '
bx &
b1 %
b1111111 $
b1111111 #
b1111111 "
b11 !
$end
#50
0)
b0 !
#100
1)
b1 !
#150
0)
b0 !
#170
b0 %
#200
b0 (
b0 *
b0 '
1)
b1 !
#250
b1000000 &
b1000000 +
0)
b0 !
#280
b1 %
#300
b1 '
1)
b1 !
#350
0)
b0 !
#400
b10 '
1)
b1 !
#450
0)
b0 !
#500
b11 '
1)
b1 !
#550
0)
b0 !
#600
b100 '
1)
b1 !
#650
0)
b0 !
#700
b101 '
1)
b1 !
#750
0)
b0 !
#800
b110 '
1)
b1 !
#850
0)
b0 !
#900
b111 '
1)
b1 !
#950
0)
b0 !
#1000
b1000 '
1)
b1 !
#1050
0)
b0 !
#1100
b1001 '
1)
b1 !
#1150
0)
b0 !
#1200
b1010 '
1)
b1 !
#1250
0)
b0 !
#1300
b1011 '
1)
b1 !
#1350
0)
b0 !
#1400
b1100 '
1)
b1 !
#1450
0)
b0 !
#1500
b1101 '
1)
b1 !
#1550
0)
b0 !
#1600
b1110 '
1)
b1 !
#1650
0)
b0 !
#1700
b1111 '
1)
b1 !
#1750
0)
b0 !
#1800
b10000 '
1)
b1 !
#1850
0)
b0 !
#1900
b10001 '
1)
b1 !
#1950
0)
b0 !
#2000
b10010 '
1)
b1 !
#2050
0)
b0 !
#2100
b10011 '
1)
b1 !
#2150
0)
b0 !
#2200
b10100 '
1)
b1 !
#2250
0)
b0 !
#2300
b10101 '
1)
b1 !
#2350
0)
b0 !
#2400
b10110 '
1)
b1 !
#2450
0)
b0 !
#2500
b10111 '
1)
b1 !
#2550
0)
b0 !
#2600
b11000 '
1)
b1 !
#2650
0)
b0 !
#2700
b11001 '
1)
b1 !
#2750
0)
b0 !
#2800
b11010 '
1)
b1 !
#2850
0)
b0 !
#2900
b11011 '
1)
b1 !
#2950
0)
b0 !
#3000
b11100 '
1)
b1 !
#3050
0)
b0 !
#3100
b11101 '
1)
b1 !
#3150
0)
b0 !
#3200
b11110 '
1)
b1 !
#3250
0)
b0 !
#3300
b11111 '
1)
b1 !
#3350
0)
b0 !
#3400
b1 (
b1 *
b0 '
1)
b1 !
#3450
b1001111 &
b1001111 +
0)
b0 !
#3500
b1 '
1)
b1 !
#3550
0)
b0 !
#3600
b10 '
1)
b1 !
#3650
0)
b0 !
#3700
b11 '
1)
b1 !
#3750
0)
b0 !
#3800
b100 '
1)
b1 !
#3850
0)
b0 !
#3900
b101 '
1)
b1 !
#3950
0)
b0 !
#4000
b110 '
1)
b1 !
#4050
0)
b0 !
#4100
b111 '
1)
b1 !
#4150
0)
b0 !
#4200
b1000 '
1)
b1 !
#4250
0)
b0 !
#4300
b1001 '
1)
b1 !
#4350
0)
b0 !
#4400
b1010 '
1)
b1 !
#4450
0)
b0 !
#4500
b1011 '
1)
b1 !
#4550
0)
b0 !
#4600
b1100 '
1)
b1 !
#4650
0)
b0 !
#4700
b1101 '
1)
b1 !
#4750
0)
b0 !
#4800
b1110 '
1)
b1 !
#4850
0)
b0 !
#4900
b1111 '
1)
b1 !
#4950
0)
b0 !
#5000
b10000 '
1)
b1 !
#5050
0)
b0 !
#5100
b10001 '
1)
b1 !
#5150
0)
b0 !
#5200
b10010 '
1)
b1 !
#5250
0)
b0 !
#5300
b10011 '
1)
b1 !
#5350
0)
b0 !
#5400
b10100 '
1)
b1 !
#5450
0)
b0 !
#5500
b10101 '
1)
b1 !
#5550
0)
b0 !
#5600
b10110 '
1)
b1 !
#5650
0)
b0 !
#5700
b10111 '
1)
b1 !
#5750
0)
b0 !
#5800
b11000 '
1)
b1 !
#5850
0)
b0 !
#5900
b11001 '
1)
b1 !
#5950
0)
b0 !
#6000
b11010 '
1)
b1 !
#6050
0)
b0 !
#6100
b11011 '
1)
b1 !
#6150
0)
b0 !
#6200
b11100 '
1)
b1 !
#6250
0)
b0 !
#6300
b11101 '
1)
b1 !
#6350
0)
b0 !
#6400
b11110 '
1)
b1 !
#6450
0)
b0 !
#6500
b11111 '
1)
b1 !
#6550
0)
b0 !
#6600
b10 (
b10 *
b0 '
1)
b1 !
#6650
b100100 &
b100100 +
0)
b0 !
#6700
b1 '
1)
b1 !
#6750
0)
b0 !
#6800
b10 '
1)
b1 !
#6850
0)
b0 !
#6900
b11 '
1)
b1 !
#6950
0)
b0 !
#7000
b100 '
1)
b1 !
#7050
0)
b0 !
#7100
b101 '
1)
b1 !
#7150
0)
b0 !
#7200
b110 '
1)
b1 !
#7250
0)
b0 !
#7300
b111 '
1)
b1 !
#7350
0)
b0 !
#7400
b1000 '
1)
b1 !
#7450
0)
b0 !
#7500
b1001 '
1)
b1 !
#7550
0)
b0 !
#7600
b1010 '
1)
b1 !
#7650
0)
b0 !
#7700
b1011 '
1)
b1 !
#7750
0)
b0 !
#7800
b1100 '
1)
b1 !
#7850
0)
b0 !
#7900
b1101 '
1)
b1 !
#7950
0)
b0 !
#8000
b1110 '
1)
b1 !
#8050
0)
b0 !
#8100
b1111 '
1)
b1 !
#8150
0)
b0 !
#8200
b10000 '
1)
b1 !
#8250
0)
b0 !
#8300
b10001 '
1)
b1 !
#8350
0)
b0 !
#8400
b10010 '
1)
b1 !
#8450
0)
b0 !
#8500
b10011 '
1)
b1 !
#8550
0)
b0 !
#8600
b10100 '
1)
b1 !
#8650
0)
b0 !
#8700
b10101 '
1)
b1 !
#8750
0)
b0 !
#8800
b10110 '
1)
b1 !
#8850
0)
b0 !
#8900
b10111 '
1)
b1 !
#8950
0)
b0 !
#9000
b11000 '
1)
b1 !
#9050
0)
b0 !
#9100
b11001 '
1)
b1 !
#9150
0)
b0 !
#9200
b11010 '
1)
b1 !
#9250
0)
b0 !
#9300
b11011 '
1)
b1 !
#9350
0)
b0 !
#9400
b11100 '
1)
b1 !
#9450
0)
b0 !
#9500
b11101 '
1)
b1 !
#9550
0)
b0 !
#9600
b11110 '
1)
b1 !
#9650
0)
b0 !
#9700
b11111 '
1)
b1 !
#9750
0)
b0 !
#9800
b11 (
b11 *
b0 '
1)
b1 !
#9850
b110000 &
b110000 +
0)
b0 !
#9900
b1 '
1)
b1 !
#9950
0)
b0 !
#10000
b10 '
1)
b1 !
#10050
0)
b0 !
#10100
b11 '
1)
b1 !
#10150
0)
b0 !
#10200
b100 '
1)
b1 !
#10250
0)
b0 !
